starting vacuum...end.
transaction type: <builtin: TPC-B (sort of)>
scaling factor: 400
query mode: simple
number of clients: 32
number of threads: 1
duration: 900 s
number of transactions actually processed: 4859030
latency average = 5.928 ms
tps = 5398.485475 (including connections establishing)
tps = 5398.491502 (excluding connections establishing)
